<svg xmlns="http://www.w3.org/2000/svg" width="426" height="426" viewBox="0 0 426 426">
  <defs>
    <style>
      .cls-1 {
        fill: #fff;
      }

      .cls-2 {
        fill: #ff66b6;
      }

      .cls-3 {
        fill: #ffb2c7;
      }

      .cls-4 {
        fill: #cf9e76;
      }

      .cls-5 {
        fill: #ccd1d9;
      }

      .cls-6 {
        fill: #dfb28b;
      }

      .cls-7 {
        fill: #fcd770;
      }

      .cls-8 {
        fill: #ffeaa7;
      }

      .cls-9 {
        fill: #ffc729;
      }

      .cls-10 {
        fill: #a0d468;
      }

      .cls-11 {
        fill: #fc6e51;
      }
    </style>
  </defs>
  <g id="Grupo_118" data-name="Grupo 118" transform="translate(-624 -96)">
    <circle id="Elipse_25" data-name="Elipse 25" class="cls-1" cx="213" cy="213" r="213" transform="translate(624 96)"/>
    <g id="loader" transform="translate(632.979 104.299)">
      <g id="Grupo_2" data-name="Grupo 2" transform="translate(159.845 0)">
        <g id="Grupo_1" data-name="Grupo 1" transform="translate(0 0)">
          <path id="Trazado_1" data-name="Trazado 1" class="cls-2" d="M288.575,6.87a6.815,6.815,0,0,0-4.43-3.067,205.614,205.614,0,0,0-78.51,0,6.866,6.866,0,0,0-5.248,8.519L217.9,78.429a6.815,6.815,0,0,0,7.633,4.975,124.431,124.431,0,0,1,38.3,0h1.022a6.814,6.814,0,0,0,6.815-5.043l17.72-66.039A6.814,6.814,0,0,0,288.575,6.87Z" transform="translate(-200.145 -0.021)"/>
        </g>
      </g>
      <g id="Grupo_4" data-name="Grupo 4" transform="translate(68.273 10.73)">
        <g id="Grupo_3" data-name="Grupo 3">
          <path id="Trazado_2" data-name="Trazado 2" class="cls-2" d="M182.48,84.61,164.761,18.5a6.924,6.924,0,0,0-8.792-4.7A202.262,202.262,0,0,0,87.818,53.056a7.1,7.1,0,0,0-.613,9.882l48.387,48.388a6.905,6.905,0,0,0,9.133.478,120.208,120.208,0,0,1,33.054-19.082A6.816,6.816,0,0,0,182.48,84.61Z" transform="translate(-85.486 -13.456)"/>
        </g>
      </g>
      <g id="Grupo_6" data-name="Grupo 6" transform="translate(10.764 68.181)">
        <g id="Grupo_5" data-name="Grupo 5">
          <path id="Trazado_3" data-name="Trazado 3" class="cls-2" d="M111.483,135.759,63.1,87.373a7.335,7.335,0,0,0-10.018,0,202.283,202.283,0,0,0-39.255,68.151,6.924,6.924,0,0,0,4.7,8.792l66.106,17.72a7.832,7.832,0,0,0,1.772,0,6.815,6.815,0,0,0,6.338-4.361,120.226,120.226,0,0,1,19.151-33.054A6.816,6.816,0,0,0,111.483,135.759Z" transform="translate(-13.478 -85.392)"/>
        </g>
      </g>
      <g id="Grupo_8" data-name="Grupo 8" transform="translate(0 159.545)">
        <g id="Grupo_7" data-name="Grupo 7">
          <path id="Trazado_4" data-name="Trazado 4" class="cls-2" d="M83.417,263.884a130.183,130.183,0,0,1-.136-38.506,6.815,6.815,0,0,0-4.975-7.633l-66.039-17.72c-.143-.038-.288-.073-.433-.1a6.815,6.815,0,0,0-8.018,5.349,203.777,203.777,0,0,0,0,78.51,6.816,6.816,0,0,0,6.815,5.452,7.829,7.829,0,0,0,1.772,0l66.039-17.72A6.814,6.814,0,0,0,83.417,263.884Z" transform="translate(0 -199.791)"/>
        </g>
      </g>
      <g id="Grupo_10" data-name="Grupo 10" transform="translate(11.037 243.856)">
        <g id="Grupo_9" data-name="Grupo 9">
          <path id="Trazado_5" data-name="Trazado 5" class="cls-2" d="M111.961,343.068a120.221,120.221,0,0,1-18.878-33.326,6.815,6.815,0,0,0-8.11-4.157l-66.106,17.72a6.924,6.924,0,0,0-4.7,8.791,202.275,202.275,0,0,0,39.255,68.151,6.815,6.815,0,0,0,4.907,2.317,7.155,7.155,0,0,0,4.839-1.977L111.553,352.2A6.815,6.815,0,0,0,111.961,343.068Z" transform="translate(-13.819 -305.358)"/>
        </g>
      </g>
      <g id="Grupo_12" data-name="Grupo 12" transform="translate(68.252 298.457)">
        <g id="Grupo_11" data-name="Grupo 11">
          <path id="Trazado_6" data-name="Trazado 6" class="cls-2" d="M177.772,394.317a120.227,120.227,0,0,1-33.054-19.151,6.814,6.814,0,0,0-8.859.409L87.472,423.963a8.087,8.087,0,0,0-.2,10.359,202.283,202.283,0,0,0,68.151,39.255,7.676,7.676,0,0,0,2.181,0,6.942,6.942,0,0,0,6.611-5.043l17.72-66.107A6.817,6.817,0,0,0,177.772,394.317Z" transform="translate(-85.46 -373.725)"/>
        </g>
      </g>
      <g id="Grupo_14" data-name="Grupo 14" transform="translate(159.859 325.646)">
        <g id="Grupo_13" data-name="Grupo 13">
          <path id="Trazado_7" data-name="Trazado 7" class="cls-2" d="M289.4,478.865l-17.72-66.038a6.814,6.814,0,0,0-7.633-4.975,124.428,124.428,0,0,1-38.3,0,6.815,6.815,0,0,0-7.633,4.975l-17.72,66.038a6.838,6.838,0,0,0,5.248,8.451,203.777,203.777,0,0,0,78.51,0,6.836,6.836,0,0,0,5.247-8.451Z" transform="translate(-200.162 -407.769)"/>
        </g>
      </g>
      <g id="Grupo_16" data-name="Grupo 16" transform="translate(244.23 298.369)">
        <g id="Grupo_15" data-name="Grupo 15">
          <path id="Trazado_8" data-name="Trazado 8" class="cls-2" d="M400.763,424.01l-48.388-48.388a6.815,6.815,0,0,0-9.133-.477A120.2,120.2,0,0,1,310.19,394.3a6.815,6.815,0,0,0-4.157,8.11l17.174,65.7a6.942,6.942,0,0,0,6.611,5.043,7.676,7.676,0,0,0,2.181,0,202.274,202.274,0,0,0,68.151-39.255,7.1,7.1,0,0,0,.613-9.882Z" transform="translate(-305.805 -373.615)"/>
        </g>
      </g>
      <g id="Grupo_18" data-name="Grupo 18" transform="translate(298.406 244.127)">
        <g id="Grupo_17" data-name="Grupo 17">
          <path id="Trazado_9" data-name="Trazado 9" class="cls-2" d="M472.828,327.053a6.816,6.816,0,0,0-4.226-3.408L402.5,305.926a6.815,6.815,0,0,0-8.11,4.157,120.223,120.223,0,0,1-19.151,33.054,6.815,6.815,0,0,0,.613,9.4l48.388,48.388a7.158,7.158,0,0,0,4.839,1.977,6.815,6.815,0,0,0,4.907-2.317,202.284,202.284,0,0,0,39.255-68.151A6.814,6.814,0,0,0,472.828,327.053Z" transform="translate(-373.639 -305.698)"/>
        </g>
      </g>
      <g id="Grupo_20" data-name="Grupo 20" transform="translate(325.545 159.955)">
        <g id="Grupo_19" data-name="Grupo 19">
          <path id="Trazado_10" data-name="Trazado 10" class="cls-2" d="M487.167,205.786c-.029-.145-.063-.29-.1-.433a6.815,6.815,0,0,0-8.349-4.814l-66.039,17.72a6.814,6.814,0,0,0-4.975,7.633,123.059,123.059,0,0,1,0,38.3,6.815,6.815,0,0,0,4.975,7.633l66.039,17.72a7.829,7.829,0,0,0,1.772,0,6.814,6.814,0,0,0,6.815-5.452,199.222,199.222,0,0,0-.137-78.306Z" transform="translate(-407.621 -200.304)"/>
        </g>
      </g>
      <g id="Grupo_22" data-name="Grupo 22" transform="translate(298.472 68.158)">
        <g id="Grupo_21" data-name="Grupo 21">
          <path id="Trazado_11" data-name="Trazado 11" class="cls-2" d="M473.253,155.859A202.273,202.273,0,0,0,434,87.708a6.815,6.815,0,0,0-4.907-2.317,6.405,6.405,0,0,0-4.975,1.7l-48.388,48.388a6.815,6.815,0,0,0-.477,9.133A120.226,120.226,0,0,1,394.4,177.464a6.815,6.815,0,0,0,6.338,4.361,7.829,7.829,0,0,0,1.772,0l66.039-17.72a6.655,6.655,0,0,0,4.7-8.247Z" transform="translate(-373.722 -85.363)"/>
        </g>
      </g>
      <g id="Grupo_24" data-name="Grupo 24" transform="translate(244.186 10.661)">
        <g id="Grupo_23" data-name="Grupo 23">
          <path id="Trazado_12" data-name="Trazado 12" class="cls-2" d="M400.684,52.97a202.282,202.282,0,0,0-68.151-39.255,6.924,6.924,0,0,0-8.791,4.7l-17.72,66.106a6.815,6.815,0,0,0,3.885,8.178,120.225,120.225,0,0,1,33.054,19.151,6.905,6.905,0,0,0,9.133-.478l48.388-48.388a6.815,6.815,0,0,0,1.977-5.043A6.818,6.818,0,0,0,400.684,52.97Z" transform="translate(-305.75 -13.37)"/>
        </g>
      </g>
    </g>
    <circle id="Elipse_26" data-name="Elipse 26" class="cls-3" cx="112.5" cy="112.5" r="112.5" transform="translate(725 197)"/>
    <circle id="Elipse_27" data-name="Elipse 27" class="cls-1" cx="102" cy="102" r="102" transform="translate(736 207)"/>
    <g id="pasta" transform="translate(767.119 238)">
      <path id="Trazado_350" data-name="Trazado 350" class="cls-4" d="M161.615,428.545l-4.545,13.634H52.545L48,428.545V424H161.615Zm0,0" transform="translate(-34.367 -303.569)"/>
      <path id="Trazado_351" data-name="Trazado 351" class="cls-5" d="M104,67.267h6.372l18.164-.125c3.893-.429,9.874-1.954,12.957-4.419a20.735,20.735,0,0,1,12.957-4.545h54.076a4.545,4.545,0,1,0,0-9.089H154.45a20.744,20.744,0,0,1-12.957-4.545c-3.165-2.531-9.264-4.072-13.272-4.451L110.069,40H104Zm0,0" transform="translate(-74.46 -28.639)"/>
      <path id="Trazado_352" data-name="Trazado 352" class="cls-6" d="M130.7,405.634H21.634A13.633,13.633,0,0,1,8,392H144.338A13.633,13.633,0,0,1,130.7,405.634Zm0,0" transform="translate(-5.728 -280.658)"/>
      <path id="Trazado_353" data-name="Trazado 353" class="cls-7" d="M141.189,78.441c0-7.049,2.818-7.049,2.818-14.1s-2.818-7.049-2.818-14.1,2.818-7.043,2.818-14.088-2.818-7.038-2.818-14.074S144.008,15.042,144.008,8H125.829c0,7.042-2.818,7.042-2.818,14.084s2.818,7.037,2.818,14.074-2.818,7.044-2.818,14.088,2.818,7.049,2.818,14.1-2.818,7.049-2.818,14.1L123,83.981l18.6-.141Zm0,0" transform="translate(-88.064 -5.728)"/>
      <path id="Trazado_354" data-name="Trazado 354" class="cls-8" d="M200,294.629a38.629,38.629,0,1,1,77.258,0Zm0,0" transform="translate(-143.193 -183.287)"/>
      <path id="Trazado_355" data-name="Trazado 355" class="cls-7" d="M200.29,376a38.871,38.871,0,0,0-.291,4.545h77.258a38.864,38.864,0,0,0-.291-4.545Zm0,0" transform="translate(-143.193 -269.202)"/>
      <path id="Trazado_356" data-name="Trazado 356" class="cls-7" d="M232,317.54a29.54,29.54,0,0,1,59.08,0Zm0,0" transform="translate(-166.104 -206.198)"/>
      <path id="Trazado_357" data-name="Trazado 357" class="cls-9" d="M232.384,376a29.638,29.638,0,0,0-.384,4.545h59.08A29.638,29.638,0,0,0,290.7,376Zm0,0" transform="translate(-166.104 -269.202)"/>
      <path id="Trazado_358" data-name="Trazado 358" class="cls-8" d="M264,340.451a20.451,20.451,0,1,1,40.9,0Zm0,0" transform="translate(-189.015 -229.108)"/>
      <path id="Trazado_359" data-name="Trazado 359" class="cls-7" d="M264.525,376a20.387,20.387,0,0,0-.525,4.545h40.9a20.389,20.389,0,0,0-.525-4.545Zm0,0" transform="translate(-189.015 -269.202)"/>
      <path id="Trazado_360" data-name="Trazado 360" class="cls-7" d="M296,363.361a11.361,11.361,0,0,1,22.723,0Zm0,0" transform="translate(-211.925 -252.019)"/>
      <path id="Trazado_361" data-name="Trazado 361" class="cls-9" d="M296.959,376a11.31,11.31,0,0,0-.959,4.545h22.723a11.31,11.31,0,0,0-.959-4.545Zm0,0" transform="translate(-211.925 -269.202)"/>
      <path id="Trazado_362" data-name="Trazado 362" class="cls-7" d="M217.3,278.648a38.577,38.577,0,0,0-17.3,32.2h31.812A43.026,43.026,0,0,0,217.3,278.648Zm0,0" transform="translate(-143.193 -199.502)"/>
      <path id="Trazado_363" data-name="Trazado 363" class="cls-9" d="M232,328.114h22.723a42.889,42.889,0,0,0-8.3-25.345A29.494,29.494,0,0,0,232,328.114Zm0,0" transform="translate(-166.104 -216.772)"/>
      <path id="Trazado_364" data-name="Trazado 364" class="cls-7" d="M264,347.907h13.634a42.861,42.861,0,0,0-3.738-17.493A20.416,20.416,0,0,0,264,347.907Zm0,0" transform="translate(-189.015 -236.565)"/>
      <path id="Trazado_365" data-name="Trazado 365" class="cls-9" d="M296,371h4.545a42.523,42.523,0,0,0-.854-8.332A11.29,11.29,0,0,0,296,371Zm0,0" transform="translate(-211.925 -259.654)"/>
      <path id="Trazado_366" data-name="Trazado 366" class="cls-8" d="M24,294.629a38.629,38.629,0,0,1,77.258,0Zm0,0" transform="translate(-17.183 -183.287)"/>
      <path id="Trazado_367" data-name="Trazado 367" class="cls-7" d="M24.291,376A38.869,38.869,0,0,0,24,380.545h77.258a38.869,38.869,0,0,0-.291-4.545Zm0,0" transform="translate(-17.183 -269.202)"/>
      <path id="Trazado_368" data-name="Trazado 368" class="cls-7" d="M56,317.54a29.54,29.54,0,0,1,59.08,0Zm0,0" transform="translate(-40.094 -206.198)"/>
      <path id="Trazado_369" data-name="Trazado 369" class="cls-9" d="M56.384,376A29.639,29.639,0,0,0,56,380.545h59.08A29.638,29.638,0,0,0,114.7,376Zm0,0" transform="translate(-40.094 -269.202)"/>
      <path id="Trazado_370" data-name="Trazado 370" class="cls-8" d="M88,340.451a20.451,20.451,0,0,1,40.9,0Zm0,0" transform="translate(-63.005 -229.108)"/>
      <path id="Trazado_371" data-name="Trazado 371" class="cls-7" d="M88.525,376A20.388,20.388,0,0,0,88,380.545h40.9a20.388,20.388,0,0,0-.525-4.545Zm0,0" transform="translate(-63.005 -269.202)"/>
      <path id="Trazado_372" data-name="Trazado 372" class="cls-7" d="M120,363.361a11.361,11.361,0,0,1,22.723,0Zm0,0" transform="translate(-85.916 -252.019)"/>
      <path id="Trazado_373" data-name="Trazado 373" class="cls-10" d="M430.723,248h-4.545A18.179,18.179,0,0,0,408,266.178h4.545A18.179,18.179,0,0,0,430.723,248Zm0,0" transform="translate(-292.113 -177.559)"/>
      <path id="Trazado_374" data-name="Trazado 374" class="cls-10" d="M26.178,253.634H21.634A13.633,13.633,0,0,1,8,240h4.545A13.633,13.633,0,0,1,26.178,253.634Zm0,0" transform="translate(-5.728 -171.831)"/>
      <g id="Grupo_117" data-name="Grupo 117" transform="translate(18.178 63.624)">
        <path id="Trazado_375" data-name="Trazado 375" class="cls-11" d="M361.089,228.545A4.545,4.545,0,1,1,356.545,224,4.545,4.545,0,0,1,361.089,228.545Zm0,0" transform="translate(-270.197 -224)"/>
        <path id="Trazado_376" data-name="Trazado 376" class="cls-11" d="M73.089,244.545A4.545,4.545,0,1,1,68.545,240,4.545,4.545,0,0,1,73.089,244.545Zm0,0" transform="translate(-64 -235.455)"/>
        <path id="Trazado_377" data-name="Trazado 377" class="cls-11" d="M201.089,324.545A4.545,4.545,0,1,1,196.545,320,4.545,4.545,0,0,1,201.089,324.545Zm0,0" transform="translate(-155.643 -292.732)"/>
        <path id="Trazado_378" data-name="Trazado 378" class="cls-11" d="M465.089,364.545A4.545,4.545,0,1,1,460.545,360,4.545,4.545,0,0,1,465.089,364.545Zm0,0" transform="translate(-344.658 -321.371)"/>
      </g>
      <path id="Trazado_379" data-name="Trazado 379" class="cls-9" d="M120.959,376a11.31,11.31,0,0,0-.959,4.545h22.723a11.31,11.31,0,0,0-.959-4.545Zm0,0" transform="translate(-85.916 -269.202)"/>
      <path id="Trazado_380" data-name="Trazado 380" d="M117.372,76.842a40.6,40.6,0,0,0-7.971-3.929,6.838,6.838,0,1,0-11.241-2.368c-.905-.059-1.812-.1-2.725-.1a40.9,40.9,0,0,0-25.011,8.587,40.732,40.732,0,0,0-15-7.305,13.921,13.921,0,0,1,1.223-5.215,18.625,18.625,0,0,0,1.57-7.894,18.629,18.629,0,0,0-1.57-7.892A14.114,14.114,0,0,1,55.4,44.516a14.725,14.725,0,0,1,.464-3.967c3.673-.587,9.264-2.034,12.591-4.693a18.539,18.539,0,0,1,11.535-4.044h54.078a6.817,6.817,0,1,0,0-13.634H79.987A18.535,18.535,0,0,1,68.45,14.132c-3.079-2.464-7.921-3.859-11.587-4.525a18.246,18.246,0,0,0,1.353-7.335V0H35.493V2.272a14.1,14.1,0,0,1-1.248,6.2c-.079.2-.163.409-.245.62h-4.46v4.545h3.287a22.936,22.936,0,0,0-.152,2.719c0,.663.03,1.259.073,1.825H29.539v4.545h4.129c.189.54.386,1.036.577,1.516a15.984,15.984,0,0,1,.971,3.029H29.539v4.545h5.9a13.538,13.538,0,0,1-1.088,4.545H29.539V40.9h3.42a21.457,21.457,0,0,0-.284,3.617,18.633,18.633,0,0,0,1.57,7.894,14.114,14.114,0,0,1,1.248,6.2,14.118,14.118,0,0,1-1.248,6.206,18.629,18.629,0,0,0-1.566,7.688c-1.1.361-2.186.75-3.242,1.2a6.548,6.548,0,0,0,.1-1,6.793,6.793,0,0,0-12.752-3.285A15.823,15.823,0,0,0,6.816,65.9H0v2.272A15.916,15.916,0,0,0,15.086,84.034,40.678,40.678,0,0,0,4.66,109.07H0v2.272a15.921,15.921,0,0,0,11.812,15.351l4.728,14.189h107.8l4.728-14.189a15.92,15.92,0,0,0,11.814-15.351V109.07h-.418a6.722,6.722,0,0,0,.418-2.272,6.805,6.805,0,0,0-6.181-6.754,40.3,40.3,0,0,0-5.219-11.293,20.447,20.447,0,0,0,11.4-18.31V68.169h-6.817a20.432,20.432,0,0,0-16.693,8.673ZM104.525,65.9a2.272,2.272,0,1,1-2.272,2.272A2.274,2.274,0,0,1,104.525,65.9Zm4.34,43.174a13.6,13.6,0,0,0-23.571-6.81,40.393,40.393,0,0,0-1.461-4.894,18.15,18.15,0,0,1,29.624,11.7Zm-4.663,0H86.67a9.045,9.045,0,0,1,17.533,0Zm13.841,0A22.694,22.694,0,0,0,81.98,93.057a40.825,40.825,0,0,0-2.27-3.979,27.237,27.237,0,0,1,42.878,19.991ZM95.436,74.985a36.054,36.054,0,0,1,19.728,5.842,20.234,20.234,0,0,0-1.281,4.646A31.671,31.671,0,0,0,77.041,85.4a41.614,41.614,0,0,0-3.106-3.35A36.365,36.365,0,0,1,95.436,74.985ZM79.987,22.723h54.078a2.272,2.272,0,1,1,0,4.545H79.987A23.088,23.088,0,0,0,65.612,32.31c-1.767,1.415-4.924,2.563-8.018,3.276a17.947,17.947,0,0,0,.586-3.772h3.172V27.27H58a18.7,18.7,0,0,0-1.284-4.545h4.638V18.178H55.482c-.052-.543-.084-1.138-.084-1.825a17.519,17.519,0,0,1,.148-2.362c3.627.606,7.888,1.945,10.069,3.689a23.077,23.077,0,0,0,14.373,5.043ZM52.423,24.238a14.063,14.063,0,0,1,1.248,6.194,14.122,14.122,0,0,1-1.248,6.2,18.6,18.6,0,0,0-1.57,7.886,18.633,18.633,0,0,0,1.57,7.894,14.118,14.118,0,0,1,1.248,6.2,14.118,14.118,0,0,1-1.248,6.206,18.432,18.432,0,0,0-1.495,6.031,40.805,40.805,0,0,0-4.495-.362,14.406,14.406,0,0,1,1.121-3.983,18.624,18.624,0,0,0,1.57-7.894,18.623,18.623,0,0,0-1.57-7.891,14.123,14.123,0,0,1-1.248-6.207,14.122,14.122,0,0,1,1.248-6.2,18.6,18.6,0,0,0,1.57-7.886,18.61,18.61,0,0,0-1.57-7.885,14.059,14.059,0,0,1-1.248-6.194,14.083,14.083,0,0,1,1.248-6.2,18.6,18.6,0,0,0,1.46-5.615h4.527a14.33,14.33,0,0,1-1.118,3.924,18.612,18.612,0,0,0-1.57,7.886,18.614,18.614,0,0,0,1.57,7.888ZM38.468,50.725a14.123,14.123,0,0,1-1.248-6.207,14.122,14.122,0,0,1,1.248-6.2,18.6,18.6,0,0,0,1.57-7.886,18.61,18.61,0,0,0-1.57-7.885,14.059,14.059,0,0,1-1.248-6.194,14.083,14.083,0,0,1,1.248-6.2A18.444,18.444,0,0,0,39.936,4.54h4.512a14.381,14.381,0,0,1-1.114,3.924,18.612,18.612,0,0,0-1.57,7.886,18.61,18.61,0,0,0,1.57,7.885,14.063,14.063,0,0,1,1.248,6.194,14.122,14.122,0,0,1-1.248,6.2,18.6,18.6,0,0,0-1.57,7.886,18.633,18.633,0,0,0,1.57,7.894,14.114,14.114,0,0,1,1.248,6.2,14.118,14.118,0,0,1-1.248,6.206,18.521,18.521,0,0,0-1.475,5.8,41.3,41.3,0,0,0-4.586.64,14.011,14.011,0,0,1,1.194-4.755,18.624,18.624,0,0,0,1.57-7.894,18.62,18.62,0,0,0-1.57-7.889ZM22.723,70.441a2.272,2.272,0,1,1-2.272,2.272A2.274,2.274,0,0,1,22.723,70.441Zm-17.949,0H6.816A11.379,11.379,0,0,1,17.948,79.53H15.906A11.379,11.379,0,0,1,4.774,70.441ZM21.48,84.075h1.243V83.006A36.279,36.279,0,0,1,81.687,109.07H77.142a31.776,31.776,0,0,0-63.394,0H9.2a36.239,36.239,0,0,1,12.276-25Zm37.4,25a13.618,13.618,0,0,0-26.859,0H27.423A18.2,18.2,0,0,1,45.445,93.164a17.985,17.985,0,0,1,6.906,1.384,6.735,6.735,0,0,0-.089.889,6.721,6.721,0,0,0,8.692,6.522,17.825,17.825,0,0,1,2.488,7.112Zm-4.663,0H36.679a9.045,9.045,0,0,1,17.533,0Zm4.867-11.361a2.272,2.272,0,1,1,2.272-2.272A2.274,2.274,0,0,1,59.079,97.708Zm0-9.089A6.787,6.787,0,0,0,54.407,90.5a22.473,22.473,0,0,0-8.962-1.877A22.755,22.755,0,0,0,22.838,109.07H18.293a27.222,27.222,0,0,1,42.6-20.175,6.687,6.687,0,0,0-1.811-.275Zm8.964,20.451A22.4,22.4,0,0,0,64.7,99.278a6.773,6.773,0,0,0,.645-6.516A27.139,27.139,0,0,1,72.6,109.07ZM19.817,136.337l-3.031-9.089H124.1l-3.031,9.089ZM124.975,122.7H15.905a11.379,11.379,0,0,1-11.132-9.089H136.11a11.383,11.383,0,0,1-11.134,9.089ZM136.337,106.8a2.272,2.272,0,1,1-2.272-2.272A2.274,2.274,0,0,1,136.337,106.8Zm-6.051-5.667a6.814,6.814,0,0,0-3.038,5.667,6.723,6.723,0,0,0,.418,2.272h-.534a31.642,31.642,0,0,0-7.365-18.178h.663a20.3,20.3,0,0,0,4.631-.55,35.835,35.835,0,0,1,5.224,10.789Zm-9.855-14.783h-2.111a15.929,15.929,0,0,1,15.745-13.634h2.111A15.931,15.931,0,0,1,120.431,86.347Zm0,0"/>
    </g>
  </g>
</svg>
