<svg xmlns="http://www.w3.org/2000/svg" width="179" height="72" viewBox="0 0 179 72">
  <g id="Chat_Button" data-name="Chat Button" transform="translate(-1101 -2193)">
    <path id="Rectángulo_22" data-name="Rectángulo 22" d="M8.323,0H170.677A8.323,8.323,0,0,1,179,8.323v0A34.677,34.677,0,0,1,144.323,43h-136A8.323,8.323,0,0,1,0,34.677V8.323A8.323,8.323,0,0,1,8.323,0Z" transform="translate(1101 2222)" fill="#fff"/>
    <circle id="Elipse_9" data-name="Elipse 9" cx="36" cy="36" r="36" transform="translate(1208 2193)" fill="#fff"/>
    <text id="TextTOfButton" transform="translate(1108 2230)" fill="#ff66b6" font-size="22" font-family="Montserrat" font-weight="700"><tspan x="4.405" y="22">ABIERTO</tspan></text>
    <g id="chatIcon" transform="translate(1224.946 2210.319)">
      <g id="Grupo_78" data-name="Grupo 78" transform="translate(0 13.146)">
        <g id="Grupo_77" data-name="Grupo 77">
          <path id="Trazado_290" data-name="Trazado 290" d="M26.14,184.955a.756.756,0,0,0-.755.756v5.213a3.782,3.782,0,0,1-3.777,3.777H13.45a.755.755,0,0,0-.755.755v1.5l-1.8-1.8a.756.756,0,0,0-.693-.454H5.288a3.782,3.782,0,0,1-3.777-3.777V179.288a3.782,3.782,0,0,1,3.777-3.777h7.631a.755.755,0,1,0,0-1.511H5.288A5.294,5.294,0,0,0,0,179.288v11.635a5.294,5.294,0,0,0,5.288,5.288H9.811l3.1,3.1a.756.756,0,0,0,1.29-.534l0-2.569h7.4a5.294,5.294,0,0,0,5.288-5.288V185.71A.756.756,0,0,0,26.14,184.955Z" transform="translate(0 -174)" fill="#464646"/>
        </g>
      </g>
      <g id="Grupo_80" data-name="Grupo 80" transform="translate(14.808)">
        <g id="Grupo_79" data-name="Grupo 79">
          <path id="Trazado_291" data-name="Trazado 291" d="M208.893,0h-1.912a10.981,10.981,0,1,0,0,21.962h1.912a11,11,0,0,0,2.787-.357l2.825,2.823a.756.756,0,0,0,1.29-.534V19.522a11.086,11.086,0,0,0,2.886-3.559,10.862,10.862,0,0,0,1.193-4.983A10.993,10.993,0,0,0,208.893,0Zm5.691,18.55a.756.756,0,0,0-.3.6V22.07l-1.849-1.848a.755.755,0,0,0-.756-.188,9.473,9.473,0,0,1-2.785.416h-1.912a9.47,9.47,0,1,1,0-18.94h1.912a9.47,9.47,0,0,1,5.691,17.039Z" transform="translate(-196)" fill="#464646"/>
        </g>
      </g>
      <g id="Grupo_82" data-name="Grupo 82" transform="translate(23.757 5.293)">
        <g id="Grupo_81" data-name="Grupo 81">
          <path id="Trazado_292" data-name="Trazado 292" d="M320.851,73.037a3.206,3.206,0,0,0-2.966-2.966,3.174,3.174,0,0,0-2.407.852,3.21,3.21,0,0,0-1.016,2.339.756.756,0,0,0,1.511,0,1.688,1.688,0,0,1,1.809-1.683,1.688,1.688,0,0,1,.25,3.33,1.43,1.43,0,0,0-1.126,1.4v1.815a.755.755,0,1,0,1.511,0V76.37A3.182,3.182,0,0,0,320.851,73.037Z" transform="translate(-314.462 -70.063)" fill="#464646"/>
        </g>
      </g>
      <g id="Grupo_84" data-name="Grupo 84" transform="translate(26.201 15.588)">
        <g id="Grupo_83" data-name="Grupo 83">
          <path id="Trazado_293" data-name="Trazado 293" d="M348.09,206.551a.756.756,0,1,0,.221.534A.761.761,0,0,0,348.09,206.551Z" transform="translate(-346.8 -206.33)" fill="#464646"/>
        </g>
      </g>
      <g id="Grupo_86" data-name="Grupo 86" transform="translate(4.08 23.42)">
        <g id="Grupo_85" data-name="Grupo 85">
          <path id="Trazado_294" data-name="Trazado 294" d="M70.7,310H54.755a.756.756,0,0,0,0,1.511H70.7a.756.756,0,1,0,0-1.511Z" transform="translate(-54 -310)" fill="#464646"/>
        </g>
      </g>
      <g id="Grupo_88" data-name="Grupo 88" transform="translate(20.021 27.651)">
        <g id="Grupo_87" data-name="Grupo 87">
          <path id="Trazado_295" data-name="Trazado 295" d="M266.29,366.221a.755.755,0,1,0,.221.534A.761.761,0,0,0,266.29,366.221Z" transform="translate(-265 -366)" fill="#464646"/>
        </g>
      </g>
      <g id="Grupo_90" data-name="Grupo 90" transform="translate(4.08 27.651)">
        <g id="Grupo_89" data-name="Grupo 89">
          <path id="Trazado_296" data-name="Trazado 296" d="M67.725,366H54.755a.756.756,0,0,0,0,1.511H67.725a.756.756,0,0,0,0-1.511Z" transform="translate(-54 -366)" fill="#464646"/>
        </g>
      </g>
      <g id="Grupo_92" data-name="Grupo 92" transform="translate(4.08 19.19)">
        <g id="Grupo_91" data-name="Grupo 91">
          <path id="Trazado_297" data-name="Trazado 297" d="M65.786,254H54.755a.756.756,0,0,0,0,1.511h11.03a.756.756,0,0,0,0-1.511Z" transform="translate(-54 -254)" fill="#464646"/>
        </g>
      </g>
    </g>
  </g>
</svg>
